Desafio 8
…
    intersect, setdiff, setequal, union

gpa_por_disciplina <- gpa_by_offering %>%
  filter(!is.na(avg_gpa)) %>%
  group_by(course_name) %>%
  summarise(
    total_alunos = sum(students_count),
    gpa_ponderado = sum(avg_gpa * students_count) / sum(students_count)
  ) %>%
  arrange(gpa_ponderado)

print(gpa_por_disciplina)

# A tibble: 66 × 3
   course_name                                        total_alunos gpa_ponderado
   <chr>                                                     <int>         <dbl>
 1 Introduction to the Theory of Probability                  2231          2.89
 2 Linear Programming Methods                                 1083          2.95
 3 Introduction to Probability and Mathematical Stat…         1188          3.03
 4 Introduction to Stochastic Processes                        851          3.04
 5 Introduction to Probability and Mathematical Stat…          771          3.06
 6 Introductory Statistics for Engineers                      3911          3.08
 7 Introduction to Statistical Methods                       14550          3.08
 8 Introduction to Combinatorics                               846          3.10
 9 Introduction to Theory and Methods of Mathematica…         2710          3.15
10 Introductory Applied Statistics for Engineers              2460          3.18
# ℹ 56 more rows
…
